{
  "project_info": {
    "project_number": "298281110457",
    "firebase_url": "https://coorvacontacts-64fcf.firebaseio.com",
    "project_id": "coorvacontacts-64fcf",
    "storage_bucket": "coorvacontacts-64fcf.appspot.com"
  },
  "client": [
    {
      "client_info": {
        "mobilesdk_app_id": "1:298281110457:android:457535c385515ce8",
        "android_client_info": {
          "package_name": "com.teamandroid.mike.coorvacontacts"
        }
      },
      "oauth_client": [
        {
          "client_id": "298281110457-cup0t4kc845nknbaniqpagt4ianga3sb.apps.googleusercontent.com",
          "client_type": 3
        }
      ],
      "api_key": [
        {
          "current_key": "AIzaSyA_kOvnv5eptC0uaxiGqxsXidkLRguUT44"
        }
      ],
      "services": {
        "analytics_service": {
          "status": 1
        },
        "appinvite_service": {
          "status": 1,
          "other_platform_oauth_client": []
        },
        "ads_service": {
          "status": 2
        }
      }
    },
    {
      "client_info": {
        "mobilesdk_app_id": "1:298281110457:android:ecc041519114f176",
        "android_client_info": {
          "package_name": "com.teamandroid.mike.coorvacontacts.staging"
        }
      },
      "oauth_client": [
        {
          "client_id": "298281110457-cup0t4kc845nknbaniqpagt4ianga3sb.apps.googleusercontent.com",
          "client_type": 3
        }
      ],
      "api_key": [
        {
          "current_key": "AIzaSyA_kOvnv5eptC0uaxiGqxsXidkLRguUT44"
        }
      ],
      "services": {
        "analytics_service": {
          "status": 1
        },
        "appinvite_service": {
          "status": 1,
          "other_platform_oauth_client": []
        },
        "ads_service": {
          "status": 2
        }
      }
    }
  ],
  "configuration_version": "1"
}